Proyecto nuevo para evadir mis responsabilidades: Días sin ti (análisis de texto)
…
Con esto, es evidente que las palabras más utilizadas en un texto (usualmente conectores) no son tan importantes. La intuición es que la importancia de una palabra es inversamente proporcional a su frecuencia.Pero, algo que ya habíamos empezado a explorar en el primer post de esta serie es entender que a veces una palabra no tiene significado por sí misma, sino que su significado lo obtiene en función de las otras palabras a su alrededor. ¡Vamos a regresar con los n-gramas!

bigramas <- dias_pdf %>% 
  unnest_tokens(bigrama, value, token = "ngrams", n = 2) %>% 
  separate(bigrama, c("palabra1", "palabra2"), sep = " ") %>% 
  filter(!palabra1 %in% stopwords("es")) %>% 
  filter(!palabra2 %in% stopwords("es"))

bigramas %>% 
  count(palabra1, palabra2, sort = T) 

# A tibble: 7,739 x 3
   palabra1 palabra2      n
   <chr>    <chr>     <int>
 1 primera  vez          27
 2 cada     vez          14
 3 di       cuenta       13
 4 mismo    tiempo       11
 5 voz      alta         10
 6 siento   orgulloso     9
 7 todas    partes        9
 8 cada     día           8
 9 primer   día           8
10 santa    clara         8
# ... with 7,729 more rows

Con los n-gramas también se puede hacer la matriz tf-idf

bigramas %>% 
  unite(bigrama, palabra1, palabra2, sep = " ") %>% 
  count(capitulo, bigrama, sort = T) %>% 
  bind_tf_idf(bigrama, capitulo, n) %>% 
  arrange(desc(tf_idf))

# A tibble: 8,265 x 6
   capitulo bigrama                n    tf   idf tf_idf
      <int> <chr>              <int> <dbl> <dbl>  <dbl>
 1        0 agujero inmenso        1 0.025  2.56 0.0641
 2        0 alguien falta          1 0.025  2.56 0.0641
 3        0 aquella felicidad      1 0.025  2.56 0.0641
 4        0 arrebatado hoy         1 0.025  2.56 0.0641
 5        0 ausencias elegidas     1 0.025  2.56 0.0641
 6        0 cada persona           1 0.025  2.56 0.0641
 7        0 celebre aquella        1 0.025  2.56 0.0641
 8        0 consiguen llenarlo     1 0.025  2.56 0.0641
 9        0 damos cuenta           1 0.025  2.56 0.0641
10        0 debemos forzar         1 0.025  2.56 0.0641
# ... with 8,255 more rows
…
